Practical Machine Learning Project Report
…
Clean the data

In this step, we will clean the data and get rid of observations with missing values as well as some meaningless variables.

broom::tidy(colSums(is.na(trainRaw)))

## Warning: 'tidy.numeric' is deprecated.
## See help("Deprecated")

## Warning: `data_frame()` is deprecated as of tibble 1.1.0.
## Please use `tibble()` instead.
## This warning is displayed once every 8 hours.
## Call `lifecycle::last_warnings()` to see where this warning was generated.

## # A tibble: 160 x 2
##    names                    x
##    <chr>                <dbl>
##  1 X                        0
##  2 user_name                0
##  3 raw_timestamp_part_1     0
##  4 raw_timestamp_part_2     0
##  5 cvtd_timestamp           0
##  6 new_window               0
##  7 num_window               0
##  8 roll_belt                0
##  9 pitch_belt               0
## 10 yaw_belt                 0
## #  with 150 more rows
…
